<svg viewBox="0 0 152.9 30.9" width="250" style="enable-background:new 0 0 152.9 30.9;" xml:space="preserve">
<g>
	<path d="M0,1h9c7.6,0,12.9,5.2,12.9,12v0.1c0,6.8-5.3,12.1-12.9,12.1H0V1z M4.3,4.9v16.5H9c5.1,0,8.4-3.4,8.4-8.2v-0.1
		c0-4.7-3.3-8.2-8.4-8.2H4.3z"/>
	<path d="M23.6,20L23.6,20c0-4,3.1-5.9,7.5-5.9c2,0,3.5,0.3,4.9,0.8v-0.4c0-2.6-1.6-4-4.5-4c-2,0-3.6,0.4-5.2,1.1l-1.1-3.3
		c2-0.9,4-1.5,6.9-1.5c2.7,0,4.8,0.7,6.1,2c1.3,1.3,2,3.3,2,5.6v10.8H36V23c-1.2,1.5-3.1,2.7-5.9,2.7C26.7,25.6,23.6,23.7,23.6,20z
		 M36.1,18.7v-1.2c-1.1-0.4-2.5-0.7-4.1-0.7c-2.7,0-4.3,1.1-4.3,3v0.1c0,1.8,1.6,2.8,3.6,2.8C34,22.6,36.1,21,36.1,18.7z"/>
	<path d="M43.5,0.2H48v4h-4.5V0.2z M43.6,7h4.2v18.3h-4.2V7z"/>
	<path d="M51.8,0H56v25.2h-4.2V0z"/>
	<path d="M72.4,7h4.4l-7.3,18.8c-1.5,3.7-3.1,5.1-6,5.1c-1.7,0-3-0.4-4.3-1.1l1.4-3.1c0.8,0.4,1.6,0.7,2.5,0.7
		c1.2,0,1.9-0.5,2.6-2.1L58,7h4.5l5.2,13.6L72.4,7z"/>
	<path d="M79.6,1h17v1.7H81.4v9.9h13.7v1.7H81.4v11h-1.8V1z"/>
	<path d="M98.4,16.5L98.4,16.5c0-5.2,3.6-9.3,8.4-9.3c4.9,0,8.1,4,8.1,9.2c0,0.3,0,0.4,0,0.7h-14.6c0.3,4.4,3.5,7,6.9,7
		c2.7,0,4.6-1.2,6.1-2.8l1.2,1c-1.8,1.9-3.9,3.3-7.3,3.3C102.4,25.7,98.4,22,98.4,16.5z M113,15.6c-0.2-3.6-2.3-6.8-6.3-6.8
		c-3.5,0-6.2,2.9-6.5,6.8H113z"/>
	<path d="M116.9,16.5L116.9,16.5c0-5.2,3.6-9.3,8.4-9.3c4.9,0,8.1,4,8.1,9.2c0,0.3,0,0.4,0,0.7h-14.6c0.3,4.4,3.5,7,6.9,7
		c2.7,0,4.6-1.2,6.1-2.8l1.2,1c-1.8,1.9-3.9,3.3-7.3,3.3C120.9,25.7,116.9,22,116.9,16.5z M131.5,15.6c-0.2-3.6-2.3-6.8-6.3-6.8
		c-3.5,0-6.2,2.9-6.5,6.8H131.5z"/>
	<path d="M135.4,16.5L135.4,16.5c0-5.8,4.3-9.3,8.6-9.3c3.5,0,5.8,2,7.3,4.2V0h1.7v25.2h-1.7v-3.9c-1.5,2.3-3.8,4.4-7.3,4.4
		C139.7,25.7,135.4,22.2,135.4,16.5z M151.3,16.5L151.3,16.5c0-4.6-3.5-7.6-7.2-7.6c-3.8,0-6.9,2.8-6.9,7.5v0.1
		c0,4.6,3.2,7.6,6.9,7.6C147.8,24,151.3,21,151.3,16.5z"/>
</g>
</svg>
