<svg class="nav-toggle" viewBox="0 0 384 384" style="enable-background:new 0 0 384 384;" xml:space="preserve">
	<g>
		<rect x="0" y="277.333" width="384" height="42.667"/>
		<rect x="0" y="170.667" width="384" height="42.667"/>
		<rect x="0" y="64" width="384" height="42.667"/>
	</g>
</svg>
